('paral_call', 'docker run sieve_pi_1000', 100)
docker: error during connect: Post http://%2Fvar%2Frun%2Fdocker.sock/v1.29/containers/6f06e81ac2e2de7d20f3a217ed84e15be507f06857742848beb657eccd5a0250/start: EOF.
docker: error during connect: Post http://%2Fvar%2Frun%2Fdocker.sock/v1.29/containers/02b50c9b29e8797a1096d46568de4157a44b189e17c020433792a9bf4311687c/start: EOF.
docker: error during connect: Post http://%2Fvar%2Frun%2Fdocker.sock/v1.29/containers/81231f104dd35e147c7f47706e11f3232ea66529410b3635e4bd5d6b576c810b/start: EOF.
docker: error during connect: Post http://%2Fvar%2Frun%2Fdocker.sock/v1.29/containers/6c785707fd1d435d849c372ec2c16c6bfbb878b500942f19ca7abfc878b11b38/start: EOF.
docker: error during connect: Post http://%2Fvar%2Frun%2Fdocker.sock/v1.29/containers/cf494f13c5d5321af3ce25082313b43a63e6eee7ce555f7736946f2928f9947f/start: EOF.
docker: error during connect: Post http://%2Fvar%2Frun%2Fdocker.sock/v1.29/containers/349654edf2693e86b8b69ab4ca19306e08d036402d7341556f613ed201d52779/start: EOF.
docker: error during connect: Post http://%2Fvar%2Frun%2Fdocker.sock/v1.29/containers/94b51f75ebb5585a79dc31724db46f580ade81c78d367e4a382b62c2eca6c160/start: EOF.
docker: error during connect: Post http://%2Fvar%2Frun%2Fdocker.sock/v1.29/containers/96074162cab1b361303e32b207218d55e57b9f838200b271e0efe318b6c1a43d/start: EOF.
docker: error during connect: Post http://%2Fvar%2Frun%2Fdocker.sock/v1.29/containers/6906c913297f852f217475e4711a265053c23db9875d7e226d41bf178db3b11f/start: EOF.
docker: error during connect: Post http://%2Fvar%2Frun%2Fdocker.sock/v1.29/containers/ee158913074a2d3becda916991dcb77a09326d70bac0d416ea079339f88b1d51/start: EOF.
docker: error during connect: Post http://%2Fvar%2Frun%2Fdocker.sock/v1.29/containers/0a9d084e2eac983cb5ce9912c4d65a62cd379d2cb68db77171d8e12b17d4356d/start: EOF.
docker: error during connect: Post http://%2Fvar%2Frun%2Fdocker.sock/v1.29/containers/37c8b2e075a72c368984e46ea561e6162949b55733f3c17bf6218c966ced8e4d/start: EOF.
docker: error during connect: Post http://%2Fvar%2Frun%2Fdocker.sock/v1.29/containers/1e8ecd7cd8e5e244e3ae8d9c280b06049f879e48f835e149e8b2d7964036a336/start: EOF.
docker: error during connect: Post http://%2Fvar%2Frun%2Fdocker.sock/v1.29/containers/171b9de74f7c477d65d7b5751b408653d7f169865a46ca0b73452ea539ab0110/start: EOF.
docker: error during connect: Post http://%2Fvar%2Frun%2Fdocker.sock/v1.29/containers/3d4fb181112cb524547b2e8180bede740494d4f009b44b3edc2c62448758de02/start: EOF.
docker: error during connect: Post http://%2Fvar%2Frun%2Fdocker.sock/v1.29/containers/29dacf9c211a0a098d3766354b45e963bc85e7b2707c2b75bc1533a2dcb13d35/start: EOF.
docker: error during connect: Post http://%2Fvar%2Frun%2Fdocker.sock/v1.29/containers/90a8e26488b348689accdec8c169df7db2efaa5f1cdf922f60c9175c9362ec0b/start: EOF.
docker: error during connect: Post http://%2Fvar%2Frun%2Fdocker.sock/v1.29/containers/ffdfda7c0adc863cc6bdc2124511e0557593c7e985941e576a49da1fe40dc973/start: EOF.
docker: error during connect: Post http://%2Fvar%2Frun%2Fdocker.sock/v1.29/containers/1a5a96e8052c2a3af693f16c37c8921894e244423f7d4a16664d32b92ad2e918/start: EOF.
docker: error during connect: Post http://%2Fvar%2Frun%2Fdocker.sock/v1.29/containers/609f857b1789df29e77a7dd98c83d7534a39ecd4b195f142586b0b60b3eb4466/start: EOF.
docker: error during connect: Post http://%2Fvar%2Frun%2Fdocker.sock/v1.29/containers/9df06b6e2842e022a66e58bca1cd695aa2d1279d91d096115775b6fcd1300b42/start: EOF.
ERRO[0098] error getting events from daemon: unexpected EOF 
docker: error during connect: Post http://%2Fvar%2Frun%2Fdocker.sock/v1.29/containers/8a472085b58c8235e55994b53b0642731b635902232db757b4f9807895aaee16/start: EOF.
docker: error during connect: Post http://%2Fvar%2Frun%2Fdocker.sock/v1.29/containers/376de48ea80bc46a6d64e53d3f19f53948c51b7ceb9e1845fa2b57de46f91121/start: EOF.
docker: error during connect: Post http://%2Fvar%2Frun%2Fdocker.sock/v1.29/containers/8aa8daf4febb000e8bce902c66505a677ec0105a429f7e5fa0d93aa61f12bd1b/start: EOF.
docker: error during connect: Post http://%2Fvar%2Frun%2Fdocker.sock/v1.29/containers/1dc88e4c8d98947f71a2442c6951b33984828cbb01d00b6156bfc6d3be8c301c/start: EOF.
docker: error during connect: Post http://%2Fvar%2Frun%2Fdocker.sock/v1.29/containers/1f7ba02034c4e4646169d049edabc7110d4e77a134c531ca7cd0fc844de20e16/start: EOF.
ERRO[0098] error getting events from daemon: unexpected EOF 
docker: error during connect: Post http://%2Fvar%2Frun%2Fdocker.sock/v1.29/containers/abc05a7e9dd80d458ec753056c458a622cd96eedb74ee7155453f75806d3904a/start: EOF.
docker: error during connect: Post http://%2Fvar%2Frun%2Fdocker.sock/v1.29/containers/67253328211b3072def8a78093579162bfbf575a4759de5fe0cdf08358db893a/start: EOF.
docker: error during connect: Post http://%2Fvar%2Frun%2Fdocker.sock/v1.29/containers/a6b780061c9f5a0289dc790a987a5e712198eba006bffd579a8cb52fbd849f33/start: EOF.
ERRO[0097] error getting events from daemon: unexpected EOF 
ERRO[0096] error getting events from daemon: unexpected EOF 
ERRO[0097] error getting events from daemon: unexpected EOF 
ERRO[0098] error getting events from daemon: unexpected EOF 
ERRO[0098] error getting events from daemon: unexpected EOF 
ERRO[0098] error getting events from daemon: unexpected EOF 
ERRO[0098] error getting events from daemon: unexpected EOF 
ERRO[0098] error getting events from daemon: unexpected EOF 
ERRO[0098] error getting events from daemon: unexpected EOF 
ERRO[0098] error getting events from daemon: unexpected EOF 
docker: error during connect: Post http://%2Fvar%2Frun%2Fdocker.sock/v1.29/containers/501dbd9b4f3a9723c1c0ce755d0abf6c0dd16674a79787255b107aa9869def06/start: EOF.
ERRO[0098] error getting events from daemon: unexpected EOF 
ERRO[0097] error getting events from daemon: unexpected EOF 
ERRO[0096] error getting events from daemon: unexpected EOF 
ERRO[0097] error getting events from daemon: unexpected EOF 
ERRO[0097] error getting events from daemon: unexpected EOF 
ERRO[0096] error getting events from daemon: unexpected EOF 
ERRO[0099] error getting events from daemon: unexpected EOF 
ERRO[0096] error getting events from daemon: unexpected EOF 
ERRO[0096] error getting events from daemon: unexpected EOF 
ERRO[0096] error getting events from daemon: unexpected EOF 
ERRO[0096] error getting events from daemon: unexpected EOF 
docker: error during connect: Post http://%2Fvar%2Frun%2Fdocker.sock/v1.29/containers/1ba4a8e715ab4f60ea72863f8dc8303e5635b73f4b55c02594b95d1a43427769/start: EOF.
ERRO[0096] error getting events from daemon: unexpected EOF 
ERRO[0097] error getting events from daemon: unexpected EOF 
ERRO[0097] error getting events from daemon: unexpected EOF 
docker: error during connect: Post http://%2Fvar%2Frun%2Fdocker.sock/v1.29/containers/8db24e4557452f1f8a498f6e799a8814b3d6621bebf358546ff7426ac28d6c17/start: EOF.
docker: error during connect: Post http://%2Fvar%2Frun%2Fdocker.sock/v1.29/containers/88c4cc441940ba1e5a55913934f8ea1fd93581cea3f40170952ef80c80cf2573/start: EOF.
ERRO[0097] error getting events from daemon: unexpected EOF 
ERRO[0098] error getting events from daemon: unexpected EOF 
docker: error during connect: Post http://%2Fvar%2Frun%2Fdocker.sock/v1.29/containers/3ee7c9639b8ff134bda7f8987ffdcf41be6d0df0fa8859407cbac18fa70dda1d/start: EOF.
docker: error during connect: Post http://%2Fvar%2Frun%2Fdocker.sock/v1.29/containers/710d0ce7f629d82a37e64125d1a2084dcd10151eb30d05033539df9735628409/start: EOF.
ERRO[0096] error getting events from daemon: unexpected EOF 
ERRO[0097] error getting events from daemon: unexpected EOF 
ERRO[0097] error getting events from daemon: unexpected EOF 
docker: error during connect: Post http://%2Fvar%2Frun%2Fdocker.sock/v1.29/containers/3666a4f57e66b45ee61869eacdb16869278b81d01777fa5778189d7c8550184c/start: EOF.
ERRO[0097] error getting events from daemon: unexpected EOF 
ERRO[0096] error getting events from daemon: unexpected EOF 
ERRO[0098] error getting events from daemon: unexpected EOF 
ERRO[0096] error getting events from daemon: unexpected EOF 
ERRO[0096] error getting events from daemon: unexpected EOF 
ERRO[0098] error getting events from daemon: unexpected EOF 
ERRO[0096] error getting events from daemon: unexpected EOF 
docker: error during connect: Post http://%2Fvar%2Frun%2Fdocker.sock/v1.29/containers/cdc1a261f55f3356d7bc2f96914ea565c89fb7493b46bc58080d4eaabb4dc578/start: EOF.
ERRO[0098] error getting events from daemon: unexpected EOF 
docker: error during connect: Post http://%2Fvar%2Frun%2Fdocker.sock/v1.29/containers/3f00b484e873e57ebac7d90cffec0f13f204172bbe85bd41cfc01988f1374a23/start: EOF.
ERRO[0098] error getting events from daemon: unexpected EOF 
ERRO[0098] error getting events from daemon: unexpected EOF 
docker: error during connect: Post http://%2Fvar%2Frun%2Fdocker.sock/v1.29/containers/fa41fc5b12aa3922c2d049d2848d540b2a59de627c71777867e0c98b18cb5310/start: EOF.
ERRO[0097] error getting events from daemon: unexpected EOF 
docker: error during connect: Post http://%2Fvar%2Frun%2Fdocker.sock/v1.29/containers/67f665206dcb6f2cdc9cea87a5cbd6603fba177c99f6fa32a900ba113a4a5b35/start: EOF.
ERRO[0098] error getting events from daemon: unexpected EOF 
docker: error during connect: Post http://%2Fvar%2Frun%2Fdocker.sock/v1.29/containers/12cb735fff0c5b6c28af4f17a983d072d25193224b9a9a4516d6f73f1af68014/start: EOF.
docker: error during connect: Post http://%2Fvar%2Frun%2Fdocker.sock/v1.29/containers/aab3d754bc45de2999d75abaa99ea3171c3dd05d85e06f1e05a8fd2d3b07ad20/start: EOF.
docker: error during connect: Post http://%2Fvar%2Frun%2Fdocker.sock/v1.29/containers/fc36380b100e7b75edba2a9b6ef62b682fecce005646c430bd87bbb550e71442/start: EOF.
docker: error during connect: Post http://%2Fvar%2Frun%2Fdocker.sock/v1.29/containers/c32c2df4a5bb6e6f17bd4302e60f661b6c0a40b9189b6c59b8318fc55e85a11a/start: EOF.
ERRO[0097] error getting events from daemon: unexpected EOF 
docker: error during connect: Post http://%2Fvar%2Frun%2Fdocker.sock/v1.29/containers/c4ab8177e187bd633774790c8105c97611983395526d4a54652b3b07d592527c/start: EOF.
docker: error during connect: Post http://%2Fvar%2Frun%2Fdocker.sock/v1.29/containers/3ac13e8bd235027661d8d6dded7cb91d81c469b70fef1c18440fb1d89b3a0470/start: EOF.
docker: error during connect: Post http://%2Fvar%2Frun%2Fdocker.sock/v1.29/containers/5e27352355efeb2f939f17758f670b0561ea952e3a04784c40a67f55f7e4c062/start: EOF.
docker: error during connect: Post http://%2Fvar%2Frun%2Fdocker.sock/v1.29/containers/de9ff455f3a5122769b58887e8bd9e5387c09ea428c98b6e12b82c07dfcc04cc/start: EOF.
ERRO[0097] error getting events from daemon: unexpected EOF 
docker: error during connect: Post http://%2Fvar%2Frun%2Fdocker.sock/v1.29/containers/e1b42ace2f1b90473c74322d62426a6a4d47bc30c0088951284c8c4654467617/start: EOF.
docker: error during connect: Post http://%2Fvar%2Frun%2Fdocker.sock/v1.29/containers/9abbf2f15913dc565230dd87fe2f67366d55ed9c29f9673080445d35c9866d5d/start: EOF.
docker: error during connect: Post http://%2Fvar%2Frun%2Fdocker.sock/v1.29/containers/61233818cc2f5907d5e7095ffb586840267f4d04d655874e9e6982f84a90b566/start: EOF.
ERRO[0097] error getting events from daemon: unexpected EOF 
docker: error during connect: Post http://%2Fvar%2Frun%2Fdocker.sock/v1.29/containers/0f56a6f92a905552b3e84661aee4647ee0398d7bba5b872efd9b45295eaf9f7e/start: EOF.
ERRO[0097] error getting events from daemon: unexpected EOF 
ERRO[0096] error getting events from daemon: unexpected EOF 
ERRO[0096] error getting events from daemon: unexpected EOF 
ERRO[0096] error getting events from daemon: unexpected EOF 
paral_call done

